[
    {
        "name": "psr/http-message",
        "version": "1.0.1",
        "version_normalized": "1.0.1.0",
        "source": {
            "type": "git",
            "url": "https://github.com/php-fig/http-message.git",
            "reference": "f6561bf28d520154e4b0ec72be95418abe6d9363"
        },
        "dist": {
            "type": "zip",
            "url": "https://api.github.com/repos/php-fig/http-message/zipball/f6561bf28d520154e4b0ec72be95418abe6d9363",
            "reference": "f6561bf28d520154e4b0ec72be95418abe6d9363",
            "shasum": ""
        },
        "require": {
            "php": ">=5.3.0"
        },
        "time": "2016-08-06T14:39:51+00:00",
        "type": "library",
        "extra": {
            "branch-alias": {
                "dev-master": "1.0.x-dev"
            }
        },
        "installation-source": "dist",
        "autoload": {
            "psr-4": {
                "Psr\\Http\\Message\\": "src/"
            }
        },
        "notification-url": "https://packagist.org/downloads/",
        "license": [
            "MIT"
        ],
        "authors": [
            {
                "name": "PHP-FIG",
                "homepage": "http://www.php-fig.org/"
            }
        ],
        "description": "Common interface for HTTP messages",
        "homepage": "https://github.com/php-fig/http-message",
        "keywords": [
            "http",
            "http-message",
            "psr",
            "psr-7",
            "request",
            "response"
        ]
    },
    {
        "name": "guzzlehttp/psr7",
        "version": "1.4.2",
        "version_normalized": "1.4.2.0",
        "source": {
            "type": "git",
            "url": "https://github.com/guzzle/psr7.git",
            "reference": "f5b8a8512e2b58b0071a7280e39f14f72e05d87c"
        },
        "dist": {
            "type": "zip",
            "url": "https://api.github.com/repos/guzzle/psr7/zipball/f5b8a8512e2b58b0071a7280e39f14f72e05d87c",
            "reference": "f5b8a8512e2b58b0071a7280e39f14f72e05d87c",
            "shasum": ""
        },
        "require": {
            "php": ">=5.4.0",
            "psr/http-message": "~1.0"
        },
        "provide": {
            "psr/http-message-implementation": "1.0"
        },
        "require-dev": {
            "phpunit/phpunit": "~4.0"
        },
        "time": "2017-03-20T17:10:46+00:00",
        "type": "library",
        "extra": {
            "branch-alias": {
                "dev-master": "1.4-dev"
            }
        },
        "installation-source": "dist",
        "autoload": {
            "psr-4": {
                "GuzzleHttp\\Psr7\\": "src/"
            },
            "files": [
                "src/functions_include.php"
            ]
        },
        "notification-url": "https://packagist.org/downloads/",
        "license": [
            "MIT"
        ],
        "authors": [
            {
                "name": "Michael Dowling",
                "email": "mtdowling@gmail.com",
                "homepage": "https://github.com/mtdowling"
            },
            {
                "name": "Tobias Schultze",
                "homepage": "https://github.com/Tobion"
            }
        ],
        "description": "PSR-7 message implementation that also provides common utility methods",
        "keywords": [
            "http",
            "message",
            "request",
            "response",
            "stream",
            "uri",
            "url"
        ]
    },
    {
        "name": "guzzlehttp/promises",
        "version": "v1.3.1",
        "version_normalized": "1.3.1.0",
        "source": {
            "type": "git",
            "url": "https://github.com/guzzle/promises.git",
            "reference": "a59da6cf61d80060647ff4d3eb2c03a2bc694646"
        },
        "dist": {
            "type": "zip",
            "url": "https://api.github.com/repos/guzzle/promises/zipball/a59da6cf61d80060647ff4d3eb2c03a2bc694646",
            "reference": "a59da6cf61d80060647ff4d3eb2c03a2bc694646",
            "shasum": ""
        },
        "require": {
            "php": ">=5.5.0"
        },
        "require-dev": {
            "phpunit/phpunit": "^4.0"
        },
        "time": "2016-12-20T10:07:11+00:00",
        "type": "library",
        "extra": {
            "branch-alias": {
                "dev-master": "1.4-dev"
            }
        },
        "installation-source": "dist",
        "autoload": {
            "psr-4": {
                "GuzzleHttp\\Promise\\": "src/"
            },
            "files": [
                "src/functions_include.php"
            ]
        },
        "notification-url": "https://packagist.org/downloads/",
        "license": [
            "MIT"
        ],
        "authors": [
            {
                "name": "Michael Dowling",
                "email": "mtdowling@gmail.com",
                "homepage": "https://github.com/mtdowling"
            }
        ],
        "description": "Guzzle promises library",
        "keywords": [
            "promise"
        ]
    },
    {
        "name": "guzzlehttp/guzzle",
        "version": "6.3.3",
        "version_normalized": "6.3.3.0",
        "source": {
            "type": "git",
            "url": "https://github.com/guzzle/guzzle.git",
            "reference": "407b0cb880ace85c9b63c5f9551db498cb2d50ba"
        },
        "dist": {
            "type": "zip",
            "url": "https://api.github.com/repos/guzzle/guzzle/zipball/407b0cb880ace85c9b63c5f9551db498cb2d50ba",
            "reference": "407b0cb880ace85c9b63c5f9551db498cb2d50ba",
            "shasum": ""
        },
        "require": {
            "guzzlehttp/promises": "^1.0",
            "guzzlehttp/psr7": "^1.4",
            "php": ">=5.5"
        },
        "require-dev": {
            "ext-curl": "*",
            "phpunit/phpunit": "^4.8.35 || ^5.7 || ^6.4 || ^7.0",
            "psr/log": "^1.0"
        },
        "suggest": {
            "psr/log": "Required for using the Log middleware"
        },
        "time": "2018-04-22T15:46:56+00:00",
        "type": "library",
        "extra": {
            "branch-alias": {
                "dev-master": "6.3-dev"
            }
        },
        "installation-source": "dist",
        "autoload": {
            "files": [
                "src/functions_include.php"
            ],
            "psr-4": {
                "GuzzleHttp\\": "src/"
            }
        },
        "notification-url": "https://packagist.org/downloads/",
        "license": [
            "MIT"
        ],
        "authors": [
            {
                "name": "Michael Dowling",
                "email": "mtdowling@gmail.com",
                "homepage": "https://github.com/mtdowling"
            }
        ],
        "description": "Guzzle is a PHP HTTP client library",
        "homepage": "http://guzzlephp.org/",
        "keywords": [
            "client",
            "curl",
            "framework",
            "http",
            "http client",
            "rest",
            "web service"
        ]
    },
    {
        "name": "phpseclib/phpseclib",
        "version": "2.0.11",
        "version_normalized": "2.0.11.0",
        "source": {
            "type": "git",
            "url": "https://github.com/phpseclib/phpseclib.git",
            "reference": "7053f06f91b3de78e143d430e55a8f7889efc08b"
        },
        "dist": {
            "type": "zip",
            "url": "https://api.github.com/repos/phpseclib/phpseclib/zipball/7053f06f91b3de78e143d430e55a8f7889efc08b",
            "reference": "7053f06f91b3de78e143d430e55a8f7889efc08b",
            "shasum": ""
        },
        "require": {
            "php": ">=5.3.3"
        },
        "require-dev": {
            "phing/phing": "~2.7",
            "phpunit/phpunit": "^4.8.35|^5.7|^6.0",
            "sami/sami": "~2.0",
            "squizlabs/php_codesniffer": "~2.0"
        },
        "suggest": {
            "ext-gmp": "Install the GMP (GNU Multiple Precision) extension in order to speed up arbitrary precision integer arithmetic operations.",
            "ext-libsodium": "SSH2/SFTP can make use of some algorithms provided by the libsodium-php extension.",
            "ext-mcrypt": "Install the Mcrypt extension in order to speed up a few other cryptographic operations.",
            "ext-openssl": "Install the OpenSSL extension in order to speed up a wide variety of cryptographic operations."
        },
        "time": "2018-04-15T16:55:05+00:00",
        "type": "library",
        "installation-source": "dist",
        "autoload": {
            "files": [
                "phpseclib/bootstrap.php"
            ],
            "psr-4": {
                "phpseclib\\": "phpseclib/"
            }
        },
        "notification-url": "https://packagist.org/downloads/",
        "license": [
            "MIT"
        ],
        "authors": [
            {
                "name": "Jim Wigginton",
                "email": "terrafrost@php.net",
                "role": "Lead Developer"
            },
            {
                "name": "Patrick Monnerat",
                "email": "pm@datasphere.ch",
                "role": "Developer"
            },
            {
                "name": "Andreas Fischer",
                "email": "bantu@phpbb.com",
                "role": "Developer"
            },
            {
                "name": "Hans-Jürgen Petrich",
                "email": "petrich@tronic-media.com",
                "role": "Developer"
            },
            {
                "name": "Graham Campbell",
                "email": "graham@alt-three.com",
                "role": "Developer"
            }
        ],
        "description": "PHP Secure Communications Library - Pure-PHP implementations of RSA, AES, SSH2, SFTP, X.509 etc.",
        "homepage": "http://phpseclib.sourceforge.net",
        "keywords": [
            "BigInteger",
            "aes",
            "asn.1",
            "asn1",
            "blowfish",
            "crypto",
            "cryptography",
            "encryption",
            "rsa",
            "security",
            "sftp",
            "signature",
            "signing",
            "ssh",
            "twofish",
            "x.509",
            "x509"
        ]
    },
    {
        "name": "psr/log",
        "version": "1.0.2",
        "version_normalized": "1.0.2.0",
        "source": {
            "type": "git",
            "url": "https://github.com/php-fig/log.git",
            "reference": "4ebe3a8bf773a19edfe0a84b6585ba3d401b724d"
        },
        "dist": {
            "type": "zip",
            "url": "https://api.github.com/repos/php-fig/log/zipball/4ebe3a8bf773a19edfe0a84b6585ba3d401b724d",
            "reference": "4ebe3a8bf773a19edfe0a84b6585ba3d401b724d",
            "shasum": ""
        },
        "require": {
            "php": ">=5.3.0"
        },
        "time": "2016-10-10T12:19:37+00:00",
        "type": "library",
        "extra": {
            "branch-alias": {
                "dev-master": "1.0.x-dev"
            }
        },
        "installation-source": "dist",
        "autoload": {
            "psr-4": {
                "Psr\\Log\\": "Psr/Log/"
            }
        },
        "notification-url": "https://packagist.org/downloads/",
        "license": [
            "MIT"
        ],
        "authors": [
            {
                "name": "PHP-FIG",
                "homepage": "http://www.php-fig.org/"
            }
        ],
        "description": "Common interface for logging libraries",
        "homepage": "https://github.com/php-fig/log",
        "keywords": [
            "log",
            "psr",
            "psr-3"
        ]
    },
    {
        "name": "monolog/monolog",
        "version": "1.23.0",
        "version_normalized": "1.23.0.0",
        "source": {
            "type": "git",
            "url": "https://github.com/Seldaek/monolog.git",
            "reference": "fd8c787753b3a2ad11bc60c063cff1358a32a3b4"
        },
        "dist": {
            "type": "zip",
            "url": "https://api.github.com/repos/Seldaek/monolog/zipball/fd8c787753b3a2ad11bc60c063cff1358a32a3b4",
            "reference": "fd8c787753b3a2ad11bc60c063cff1358a32a3b4",
            "shasum": ""
        },
        "require": {
            "php": ">=5.3.0",
            "psr/log": "~1.0"
        },
        "provide": {
            "psr/log-implementation": "1.0.0"
        },
        "require-dev": {
            "aws/aws-sdk-php": "^2.4.9 || ^3.0",
            "doctrine/couchdb": "~1.0@dev",
            "graylog2/gelf-php": "~1.0",
            "jakub-onderka/php-parallel-lint": "0.9",
            "php-amqplib/php-amqplib": "~2.4",
            "php-console/php-console": "^3.1.3",
            "phpunit/phpunit": "~4.5",
            "phpunit/phpunit-mock-objects": "2.3.0",
            "ruflin/elastica": ">=0.90 <3.0",
            "sentry/sentry": "^0.13",
            "swiftmailer/swiftmailer": "^5.3|^6.0"
        },
        "suggest": {
            "aws/aws-sdk-php": "Allow sending log messages to AWS services like DynamoDB",
            "doctrine/couchdb": "Allow sending log messages to a CouchDB server",
            "ext-amqp": "Allow sending log messages to an AMQP server (1.0+ required)",
            "ext-mongo": "Allow sending log messages to a MongoDB server",
            "graylog2/gelf-php": "Allow sending log messages to a GrayLog2 server",
            "mongodb/mongodb": "Allow sending log messages to a MongoDB server via PHP Driver",
            "php-amqplib/php-amqplib": "Allow sending log messages to an AMQP server using php-amqplib",
            "php-console/php-console": "Allow sending log messages to Google Chrome",
            "rollbar/rollbar": "Allow sending log messages to Rollbar",
            "ruflin/elastica": "Allow sending log messages to an Elastic Search server",
            "sentry/sentry": "Allow sending log messages to a Sentry server"
        },
        "time": "2017-06-19T01:22:40+00:00",
        "type": "library",
        "extra": {
            "branch-alias": {
                "dev-master": "2.0.x-dev"
            }
        },
        "installation-source": "dist",
        "autoload": {
            "psr-4": {
                "Monolog\\": "src/Monolog"
            }
        },
        "notification-url": "https://packagist.org/downloads/",
        "license": [
            "MIT"
        ],
        "authors": [
            {
                "name": "Jordi Boggiano",
                "email": "j.boggiano@seld.be",
                "homepage": "http://seld.be"
            }
        ],
        "description": "Sends your logs to files, sockets, inboxes, databases and various web services",
        "homepage": "http://github.com/Seldaek/monolog",
        "keywords": [
            "log",
            "logging",
            "psr-3"
        ]
    },
    {
        "name": "firebase/php-jwt",
        "version": "v5.0.0",
        "version_normalized": "5.0.0.0",
        "source": {
            "type": "git",
            "url": "https://github.com/firebase/php-jwt.git",
            "reference": "9984a4d3a32ae7673d6971ea00bae9d0a1abba0e"
        },
        "dist": {
            "type": "zip",
            "url": "https://api.github.com/repos/firebase/php-jwt/zipball/9984a4d3a32ae7673d6971ea00bae9d0a1abba0e",
            "reference": "9984a4d3a32ae7673d6971ea00bae9d0a1abba0e",
            "shasum": ""
        },
        "require": {
            "php": ">=5.3.0"
        },
        "require-dev": {
            "phpunit/phpunit": " 4.8.35"
        },
        "time": "2017-06-27T22:17:23+00:00",
        "type": "library",
        "installation-source": "dist",
        "autoload": {
            "psr-4": {
                "Firebase\\JWT\\": "src"
            }
        },
        "notification-url": "https://packagist.org/downloads/",
        "license": [
            "BSD-3-Clause"
        ],
        "authors": [
            {
                "name": "Neuman Vong",
                "email": "neuman+pear@twilio.com",
                "role": "Developer"
            },
            {
                "name": "Anant Narayanan",
                "email": "anant@php.net",
                "role": "Developer"
            }
        ],
        "description": "A simple library to encode and decode JSON Web Tokens (JWT) in PHP. Should conform to the current spec.",
        "homepage": "https://github.com/firebase/php-jwt"
    },
    {
        "name": "google/apiclient-services",
        "version": "v0.66",
        "version_normalized": "0.66.0.0",
        "source": {
            "type": "git",
            "url": "https://github.com/google/google-api-php-client-services.git",
            "reference": "357a13e6f59e5590071b1d455c0ead482fac65db"
        },
        "dist": {
            "type": "zip",
            "url": "https://api.github.com/repos/google/google-api-php-client-services/zipball/357a13e6f59e5590071b1d455c0ead482fac65db",
            "reference": "357a13e6f59e5590071b1d455c0ead482fac65db",
            "shasum": ""
        },
        "require": {
            "php": ">=5.4"
        },
        "require-dev": {
            "phpunit/phpunit": "~4.8"
        },
        "time": "2018-08-21T20:23:38+00:00",
        "type": "library",
        "installation-source": "dist",
        "autoload": {
            "psr-0": {
                "Google_Service_": "src"
            }
        },
        "notification-url": "https://packagist.org/downloads/",
        "license": [
            "Apache-2.0"
        ],
        "description": "Client library for Google APIs",
        "homepage": "http://developers.google.com/api-client-library/php",
        "keywords": [
            "google"
        ]
    },
    {
        "name": "psr/cache",
        "version": "1.0.1",
        "version_normalized": "1.0.1.0",
        "source": {
            "type": "git",
            "url": "https://github.com/php-fig/cache.git",
            "reference": "d11b50ad223250cf17b86e38383413f5a6764bf8"
        },
        "dist": {
            "type": "zip",
            "url": "https://api.github.com/repos/php-fig/cache/zipball/d11b50ad223250cf17b86e38383413f5a6764bf8",
            "reference": "d11b50ad223250cf17b86e38383413f5a6764bf8",
            "shasum": ""
        },
        "require": {
            "php": ">=5.3.0"
        },
        "time": "2016-08-06T20:24:11+00:00",
        "type": "library",
        "extra": {
            "branch-alias": {
                "dev-master": "1.0.x-dev"
            }
        },
        "installation-source": "dist",
        "autoload": {
            "psr-4": {
                "Psr\\Cache\\": "src/"
            }
        },
        "notification-url": "https://packagist.org/downloads/",
        "license": [
            "MIT"
        ],
        "authors": [
            {
                "name": "PHP-FIG",
                "homepage": "http://www.php-fig.org/"
            }
        ],
        "description": "Common interface for caching libraries",
        "keywords": [
            "cache",
            "psr",
            "psr-6"
        ]
    },
    {
        "name": "google/auth",
        "version": "v1.3.2",
        "version_normalized": "1.3.2.0",
        "source": {
            "type": "git",
            "url": "https://github.com/google/google-auth-library-php.git",
            "reference": "436007a77fd2037f933d3a5c8e4c7e0c9b88a7b0"
        },
        "dist": {
            "type": "zip",
            "url": "https://api.github.com/repos/google/google-auth-library-php/zipball/436007a77fd2037f933d3a5c8e4c7e0c9b88a7b0",
            "reference": "436007a77fd2037f933d3a5c8e4c7e0c9b88a7b0",
            "shasum": ""
        },
        "require": {
            "firebase/php-jwt": "~2.0|~3.0|~4.0|~5.0",
            "guzzlehttp/guzzle": "~5.3.1|~6.0",
            "guzzlehttp/psr7": "^1.2",
            "php": ">=5.4",
            "psr/cache": "^1.0",
            "psr/http-message": "^1.0"
        },
        "require-dev": {
            "friendsofphp/php-cs-fixer": "^1.11",
            "guzzlehttp/promises": "0.1.1|^1.3",
            "phpunit/phpunit": "^4.8.36|^5.7",
            "sebastian/comparator": ">=1.2.3"
        },
        "time": "2018-07-23T21:44:38+00:00",
        "type": "library",
        "installation-source": "dist",
        "autoload": {
            "psr-4": {
                "Google\\Auth\\": "src"
            }
        },
        "notification-url": "https://packagist.org/downloads/",
        "license": [
            "Apache-2.0"
        ],
        "description": "Google Auth Library for PHP",
        "homepage": "http://github.com/google/google-auth-library-php",
        "keywords": [
            "Authentication",
            "google",
            "oauth2"
        ]
    },
    {
        "name": "google/apiclient",
        "version": "v2.2.2",
        "version_normalized": "2.2.2.0",
        "source": {
            "type": "git",
            "url": "https://github.com/google/google-api-php-client.git",
            "reference": "4e0fd83510e579043e10e565528b323b7c2b3c81"
        },
        "dist": {
            "type": "zip",
            "url": "https://api.github.com/repos/google/google-api-php-client/zipball/4e0fd83510e579043e10e565528b323b7c2b3c81",
            "reference": "4e0fd83510e579043e10e565528b323b7c2b3c81",
            "shasum": ""
        },
        "require": {
            "firebase/php-jwt": "~2.0|~3.0|~4.0|~5.0",
            "google/apiclient-services": "~0.13",
            "google/auth": "^1.0",
            "guzzlehttp/guzzle": "~5.3.1|~6.0",
            "guzzlehttp/psr7": "^1.2",
            "monolog/monolog": "^1.17",
            "php": ">=5.4",
            "phpseclib/phpseclib": "~0.3.10|~2.0"
        },
        "require-dev": {
            "cache/filesystem-adapter": "^0.3.2",
            "phpunit/phpunit": "~4.8.36",
            "squizlabs/php_codesniffer": "~2.3",
            "symfony/css-selector": "~2.1",
            "symfony/dom-crawler": "~2.1"
        },
        "suggest": {
            "cache/filesystem-adapter": "For caching certs and tokens (using Google_Client::setCache)"
        },
        "time": "2018-06-20T15:52:20+00:00",
        "type": "library",
        "extra": {
            "branch-alias": {
                "dev-master": "2.x-dev"
            }
        },
        "installation-source": "dist",
        "autoload": {
            "psr-0": {
                "Google_": "src/"
            },
            "classmap": [
                "src/Google/Service/"
            ]
        },
        "notification-url": "https://packagist.org/downloads/",
        "license": [
            "Apache-2.0"
        ],
        "description": "Client library for Google APIs",
        "homepage": "http://developers.google.com/api-client-library/php",
        "keywords": [
            "google"
        ]
    }
]
